94, 28, 13
241, 148, 108
97, 119, 171 
90, 103, 39
164, 131, 196
140, 253, 153

255, 116, 21
7, 47, 122
222, 29, 42
69, 0, 68
187, 255, 19
255, 142, 0

0, 0, 142
64, 173, 38
203, 0, 0
255, 217, 0
207, 3, 124
0, 148, 189

255, 255, 255
249, 249, 249
180, 180, 180
117, 117, 117
53, 53, 53
0, 0, 0
